{
    "/assets/website/js/website.js": "/assets/website/js/website.js",
    "/assets/website/js/lekkerbellen.js": "/assets/website/js/lekkerbellen.js",
    "/assets/stafplicatie/js/stafplicatie.js": "/assets/stafplicatie/js/stafplicatie.js",
    "/assets/stafplicatie/js/manifest.js": "/assets/stafplicatie/js/manifest.js",
    "/assets/stafplicatie/css/stafplicatie.css": "/assets/stafplicatie/css/stafplicatie.css",
    "/assets/website/css/lekkerbellen.css": "/assets/website/css/lekkerbellen.css",
    "/assets/website/css/website.css": "/assets/website/css/website.css",
    "/assets/stafplicatie/js/vendor.js": "/assets/stafplicatie/js/vendor.js",
    "/assets/website/sound/instantrapairhorn.mp3": "/assets/website/sound/instantrapairhorn.mp3",
    "/assets/website/img/bg-body.png": "/assets/website/img/bg-body.png",
    "/assets/website/img/header-graphic-bg.jpg": "/assets/website/img/header-graphic-bg.jpg",
    "/assets/website/img/hu_logo_default.png": "/assets/website/img/hu_logo_default.png",
    "/assets/website/img/nav-call-to-balloon.png": "/assets/website/img/nav-call-to-balloon.png",
    "/assets/website/img/navigation-bg.png": "/assets/website/img/navigation-bg.png",
    "/assets/website/img/quote-box-bg.png": "/assets/website/img/quote-box-bg.png",
    "/assets/stafplicatie/img/logo_stafplicatie.png": "/assets/stafplicatie/img/logo_stafplicatie.png",
    "/assets/stafplicatie/css/free.min.css": "/assets/stafplicatie/css/free.min.css",
    "/assets/stafplicatie/css/brand.min.css": "/assets/stafplicatie/css/brand.min.css",
    "/assets/stafplicatie/css/flag.min.css": "/assets/stafplicatie/css/flag.min.css",
    "/assets/stafplicatie/svg/brand.svg": "/assets/stafplicatie/svg/brand.svg",
    "/assets/stafplicatie/svg/flag.svg": "/assets/stafplicatie/svg/flag.svg",
    "/assets/stafplicatie/svg/free.svg": "/assets/stafplicatie/svg/free.svg"
}
